%YAML 1.1
%TAG !u! tag:unity3d.com,2011:
--- !u!74 &7400000
AnimationClip:
  m_ObjectHideFlags: 0
  m_PrefabParentObject: {fileID: 0}
  m_PrefabInternal: {fileID: 0}
  m_Name: jump1
  serializedVersion: 6
  m_Legacy: 0
  m_Compressed: 0
  m_UseHighQualityCurve: 1
  m_RotationCurves:
  - curve:
      serializedVersion: 2
      m_Curve:
      - serializedVersion: 2
        time: 0.00000023841858
        value: {x: -0.00000004156165, y: -0.000000001411719, z: 0.00000006772838,
          w: 1}
        inSlope: {x: -0.6801218, y: -0.018541709, z: 0.42579266, w: -0.010737787}
        outSlope: {x: -0.6801218, y: -0.018541709, z: 0.42579266, w: -0.010737787}
        tangentMode: 0
      - serializedVersion: 2
        time: 0.03333354
        value: {x: -0.022670746, y: -0.0006180578, z: 0.014193144, w: 0.9996421}
        inSlope: {x: -1.149415, y: -0.078790374, z: 0.71676433, w: -0.061495956}
        outSlope: {x: -1.149415, y: -0.078790374, z: 0.71676433, w: -0.061495956}
        tangentMode: 0
      - serializedVersion: 2
        time: 0.10000014
        value: {x: -0.14058076, y: -0.01680486, z: 0.086858094, w: 0.9861087}
        inSlope: {x: -1.7559744, y: -0.41427878, z: 1.0515544, w: -0.33752322}
        outSlope: {x: -1.7559744, y: -0.41427878, z: 1.0515544, w: -0.33752322}
        tangentMode: 0
      - serializedVersion: 2
        time: 0.16666698
        value: {x: -0.21645176, y: -0.04607171, z: 0.1291902, w: 0.96661055}
        inSlope: {x: 0.1979546, y: -0.27448535, z: -0.13084127, w: 0.041400664}
        outSlope: {x: 0.1979546, y: -0.27448535, z: -0.13084127, w: 0.041400664}
        tangentMode: 0
      - serializedVersion: 2
        time: 0.23333359
        value: {x: -0.089297116, y: -0.05642603, z: 0.065181956, w: 0.99226683}
        inSlope: {x: 3.085112, y: -0.29146278, z: -1.4008161, w: 0.31354874}
        outSlope: {x: 3.085112, y: -0.29146278, z: -1.4008161, w: 0.31354874}
        tangentMode: 0
      - serializedVersion: 2
        time: 0.2666669
        value: {x: 0.025178237, y: -0.07060118, z: 0.015777566, w: 0.99706197}
        inSlope: {x: 3.2193851, y: -0.5063886, z: -1.3062434, w: -0.06752647}
        outSlope: {x: 3.2193851, y: -0.5063886, z: -1.3062434, w: -0.06752647}
        tangentMode: 0
      - serializedVersion: 2
        time: 0.3000002
        value: {x: 0.12532835, y: -0.09018524, z: -0.021900853, w: 0.9877651}
        inSlope: {x: 2.222094, y: -0.4508652, z: -0.7743698, w: -0.2701425}
        outSlope: {x: 2.222094, y: -0.4508652, z: -0.7743698, w: -0.2701425}
        tangentMode: 0
      - serializedVersion: 2
        time: 0.3333335
        value: {x: 0.1733177, y: -0.100658834, z: -0.035847034, w: 0.9790525}
        inSlope: {x: 0.83457553, y: 0.042511597, z: -0.2335218, w: -0.13319325}
        outSlope: {x: 0.83457553, y: 0.042511597, z: -0.2335218, w: -0.13319325}
        tangentMode: 0
      - serializedVersion: 2
        time: 0.3666668
        value: {x: 0.18096666, y: -0.087351136, z: -0.03746896, w: 0.97888553}
        inSlope: {x: 0.16881198, y: 0.6844282, z: -0.10390668, w: 0.019379716}
        outSlope: {x: 0.16881198, y: 0.6844282, z: -0.10390668, w: 0.019379716}
        tangentMode: 0
      - serializedVersion: 2
        time: 0.46666694
        value: {x: 0.18458095, y: 0.01667726, z: -0.0530052, w: 0.9812452}
        inSlope: {x: -0.01742767, y: 0.7068627, z: -0.048661467, w: -0.0045499247}
        outSlope: {x: -0.01742767, y: 0.7068627, z: -0.048661467, w: -0.0045499247}
        tangentMode: 0
      - serializedVersion: 2
        time: 0.53333354
        value: {x: 0.16550362, y: 0.029102856, z: -0.04353593, w: 0.98481786}
        inSlope: {x: -0.9567883, y: -0.1248164, z: 0.34165072, w: 0.16516165}
        outSlope: {x: -0.9567883, y: -0.1248164, z: 0.34165072, w: 0.16516165}
        tangentMode: 0
      - serializedVersion: 2
        time: 0.60000014
        value: {x: 0.06569717, y: 0.013189898, z: -0.014895842, w: 0.99764127}
        inSlope: {x: -1.5130451, y: -0.27795625, z: 0.3789608, w: 0.11631745}
        outSlope: {x: -1.5130451, y: -0.27795625, z: 0.3789608, w: 0.11631745}
        tangentMode: 0
      - serializedVersion: 2
        time: 0.666667
        value: {x: -0.0000000029994018, y: -0.000000014947362, z: 0.000000014514702,
          w: 1}
        inSlope: {x: -0.29208148, y: -0.061500456, z: 0.06209025, w: 0.0030988485}
        outSlope: {x: -0.29208148, y: -0.061500456, z: 0.06209025, w: 0.0030988485}
        tangentMode: 0
      m_PreInfinity: 2
      m_PostInfinity: 2
      m_RotationOrder: 4
    path: Bone001
  - curve:
      serializedVersion: 2
      m_Curve:
      - serializedVersion: 2
        time: 0.00000023841858
        value: {x: 0.0133527685, y: 0.006813003, z: 0.004929957, w: 0.9998755}
        inSlope: {x: -0.020139217, y: 0.34023866, z: -0.0065086796, w: -0.00395358}
        outSlope: {x: -0.020139217, y: 0.34023866, z: -0.0065086796, w: -0.00395358}
        tangentMode: 0
      - serializedVersion: 2
        time: 0.06666684
        value: {x: 0.011082901, y: 0.04517968, z: 0.0042497306, w: 0.9989084}
        inSlope: {x: -0.05248912, y: 0.8885217, z: -0.013741601, w: -0.04188363}
        outSlope: {x: -0.05248912, y: 0.8885217, z: -0.013741601, w: -0.04188363}
        tangentMode: 0
      - serializedVersion: 2
        time: 0.16666698
        value: {x: 0.006938753, y: 0.11559401, z: 0.0034009218, w: 0.99326646}
        inSlope: {x: -0.0066711623, y: 0.103026785, z: -0.0001975263, w: -0.011117633}
        outSlope: {x: -0.0066711623, y: 0.103026785, z: -0.0001975263, w: -0.011117633}
        tangentMode: 0
      - serializedVersion: 2
        time: 0.3000002
        value: {x: 0.0108907195, y: 0.045766603, z: 0.0044311034, w: 0.99888295}
        inSlope: {x: 0.06425634, y: -1.0408169, z: 0.013487424, w: 0.042485338}
        outSlope: {x: 0.06425634, y: -1.0408169, z: 0.013487424, w: 0.042485338}
        tangentMode: 0
      - serializedVersion: 2
        time: 0.3666668
        value: {x: 0.017303308, y: -0.0543668, z: 0.0052829334, w: 0.9983571}
        inSlope: {x: 0.13538483, y: -2.164109, z: 0.013203926, w: -0.14457302}
        outSlope: {x: 0.13538483, y: -2.164109, z: 0.013203926, w: -0.14457302}
        tangentMode: 0
      - serializedVersion: 2
        time: 0.43333364
        value: {x: 0.026968038, y: -0.22122803, z: 0.0069537805, w: 0.97482437}
        inSlope: {x: 0.114802174, y: -2.2173762, z: 0.038146473, w: -0.4845299}
        outSlope: {x: 0.114802174, y: -2.2173762, z: 0.038146473, w: -0.4845299}
        tangentMode: 0
      - serializedVersion: 2
        time: 0.50000024
        value: {x: 0.031124664, y: -0.31073946, z: 0.009045647, w: 0.94994235}
        inSlope: {x: -0.004932504, y: 0.09935582, z: -0.004875269, w: 0.029411353}
        outSlope: {x: -0.004932504, y: 0.09935582, z: -0.004875269, w: 0.029411353}
        tangentMode: 0
      - serializedVersion: 2
        time: 0.56666684
        value: {x: 0.025862029, y: -0.20098303, z: 0.006153681, w: 0.979234}
        inSlope: {x: -0.13748106, y: 2.5806127, z: -0.04634983, w: 0.51268864}
        outSlope: {x: -0.13748106, y: 2.5806127, z: -0.04634983, w: 0.51268864}
        tangentMode: 0
      - serializedVersion: 2
        time: 0.60000014
        value: {x: 0.020537702, y: -0.10662204, z: 0.0049383156, w: 0.99407524}
        inSlope: {x: -0.15455726, y: 2.6132698, z: -0.020727288, w: 0.30413002}
        outSlope: {x: -0.15455726, y: 2.6132698, z: -0.020727288, w: 0.30413002}
        tangentMode: 0
      - serializedVersion: 2
        time: 0.6333337
        value: {x: 0.015558185, y: -0.026764642, z: 0.0047718617, w: 0.99950933}
        inSlope: {x: -0.10777357, y: 1.7015187, z: -0.0001253616, w: 0.08700321}
        outSlope: {x: -0.10777357, y: 1.7015187, z: -0.0001253616, w: 0.08700321}
        tangentMode: 0
      - serializedVersion: 2
        time: 0.666667
        value: {x: 0.0133527685, y: 0.006813003, z: 0.004929957, w: 0.9998755}
        inSlope: {x: -0.06616256, y: 1.0073304, z: 0.0047428627, w: 0.01098455}
        outSlope: {x: -0.06616256, y: 1.0073304, z: 0.0047428627, w: 0.01098455}
        tangentMode: 0
      m_PreInfinity: 2
      m_PostInfinity: 2
      m_RotationOrder: 4
    path: Bone001/Bone002/Bone003
  - curve:
      serializedVersion: 2
      m_Curve:
      - serializedVersion: 2
        time: 0
        value: {x: -0.013560983, y: -0.0063886372, z: 0.02660045, w: 0.9995338}
        inSlope: {x: 0, y: 0, z: 0, w: 0}
        outSlope: {x: 0, y: 0, z: 0, w: 0}
        tangentMode: 0
      - serializedVersion: 2
        time: 0.03333354
        value: {x: -0.013560983, y: -0.0063886372, z: 0.02660045, w: 0.9995338}
        inSlope: {x: 0, y: 0, z: 0, w: 0}
        outSlope: {x: 0, y: 0, z: 0, w: 0}
        tangentMode: 0
      - serializedVersion: 2
        time: 0.66666675
        value: {x: -0.013560983, y: -0.0063886372, z: 0.02660045, w: 0.9995338}
        inSlope: {x: 0, y: 0, z: 0, w: 0}
        outSlope: {x: 0, y: 0, z: 0, w: 0}
        tangentMode: 0
      m_PreInfinity: 2
      m_PostInfinity: 2
      m_RotationOrder: 4
    path: Bone001/Bone002/Bone003/Bone004
  - curve:
      serializedVersion: 2
      m_Curve:
      - serializedVersion: 2
        time: 0.00000023841858
        value: {x: 2.3682364e-10, y: -1.2705887e-12, z: 0.00000011175871, w: 1}
        inSlope: {x: 0.00000009799033, y: -0.87682974, z: -0.0000000012244085, w: -0.012815607}
        outSlope: {x: 0.00000009799033, y: -0.87682974, z: -0.0000000012244085, w: -0.012815607}
        tangentMode: 0
      - serializedVersion: 2
        time: 0.03333354
        value: {x: 0.0000000035031649, y: -0.029227631, z: 0.000000111717895, w: 0.9995728}
        inSlope: {x: 0.0000001655358, y: -1.4813447, z: -0.000000007843867, w: -0.07332541}
        outSlope: {x: 0.0000001655358, y: -1.4813447, z: -0.000000007843867, w: -0.07332541}
        tangentMode: 0
      - serializedVersion: 2
        time: 0.10000014
        value: {x: 0.000000020469814, y: -0.18107677, z: 0.00000010995411, w: 0.98346895}
        inSlope: {x: 0.00000025196482, y: -2.2553897, z: -0.000000044121123, w: -0.39956814}
        outSlope: {x: 0.00000025196482, y: -2.2553897, z: -0.000000044121123, w: -0.39956814}
        tangentMode: 0
      - serializedVersion: 2
        time: 0.16666698
        value: {x: 0.000000031219894, y: -0.2773149, z: 0.00000010744112, w: 0.96077913}
        inSlope: {x: 0.000000012958722, y: -0.116016716, z: -0.000000003362982, w: -0.030336775}
        outSlope: {x: 0.000000012958722, y: -0.116016716, z: -0.000000003362982, w: -0.030336775}
        tangentMode: 0
      - serializedVersion: 2
        time: 0.2666669
        value: {x: 0.000000015263607, y: -0.13447663, z: 0.000000110775424, w: 0.9909168}
        inSlope: {x: -0.00000024038872, y: 2.1515746, z: 0.00000003181618, w: 0.28924614}
        outSlope: {x: -0.00000024038872, y: 2.1515746, z: 0.00000003181618, w: 0.28924614}
        tangentMode: 0
      - serializedVersion: 2
        time: 0.3333335
        value: {x: 2.3681035e-10, y: 0.000000119105515, z: 0.00000011175871, w: 1}
        inSlope: {x: -0.0000001942374, y: 1.7380188, z: 2.1763946e-10, w: 0.0056299623}
        outSlope: {x: -0.0000001942374, y: 1.7380188, z: 2.1763946e-10, w: 0.0056299623}
        tangentMode: 0
      - serializedVersion: 2
        time: 0.43333364
        value: {x: -0.000000018200831, y: 0.16494831, z: 0.0000001101888, w: 0.9863022}
        inSlope: {x: -0.00000015063628, y: 1.3474144, z: -0.000000024382866, w: -0.21531811}
        outSlope: {x: -0.00000015063628, y: 1.3474144, z: -0.000000024382866, w: -0.21531811}
        tangentMode: 0
      - serializedVersion: 2
        time: 0.53333354
        value: {x: -0.000000021528647, y: 0.19471358, z: 0.000000109573556, w: 0.9808602}
        inSlope: {x: 0.00000012699795, y: -1.1359197, z: 0.000000023398798, w: 0.20696214}
        outSlope: {x: 0.00000012699795, y: -1.1359197, z: 0.000000023398798, w: 0.20696214}
        tangentMode: 0
      - serializedVersion: 2
        time: 0.60000014
        value: {x: -0.000000008360049, y: 0.07691723, z: 0.00000011140941, w: 0.99703753}
        inSlope: {x: 0.00000019868595, y: -1.7775013, z: 0.000000016794655, w: 0.14651015}
        outSlope: {x: 0.00000019868595, y: -1.7775013, z: 0.000000016794655, w: 0.14651015}
        tangentMode: 0
      - serializedVersion: 2
        time: 0.6333337
        value: {x: -0.0000000023057976, y: 0.02275044, z: 0.0000001117244, w: 0.9997412}
        inSlope: {x: 0.00000012895256, y: -1.1537538, z: 0.0000000052394067, w: 0.044436805}
        outSlope: {x: 0.00000012895256, y: -1.1537538, z: 0.0000000052394067, w: 0.044436805}
        tangentMode: 0
      - serializedVersion: 2
        time: 0.666667
        value: {x: 2.3682364e-10, y: -5.038899e-13, z: 0.00000011175871, w: 1}
        inSlope: {x: 0.00000007627871, y: -0.68251383, z: 0.0000000010293643, w: 0.0077641085}
        outSlope: {x: 0.00000007627871, y: -0.68251383, z: 0.0000000010293643, w: 0.0077641085}
        tangentMode: 0
      m_PreInfinity: 2
      m_PostInfinity: 2
      m_RotationOrder: 4
    path: Bone001/Bone002/Bone003/Bone004/Bone005
  - curve:
      serializedVersion: 2
      m_Curve:
      - serializedVersion: 2
        time: 0.00000023841858
        value: {x: -1.3950584e-14, y: -6.4046153e-13, z: -0.049153525, w: 0.9987912}
        inSlope: {x: -0.016070103, y: -0.73236245, z: -0.0038620494, w: -0.009144553}
        outSlope: {x: -0.016070103, y: -0.73236245, z: -0.0038620494, w: -0.009144553}
        tangentMode: 0
      - serializedVersion: 2
        time: 0.03333354
        value: {x: -0.0005356696, y: -0.024412058, z: -0.04928226, w: 0.9984864}
        inSlope: {x: -0.027703792, y: -1.237818, z: -0.0027661985, w: -0.05138402}
        outSlope: {x: -0.027703792, y: -1.237818, z: -0.0027661985, w: -0.05138402}
        tangentMode: 0
      - serializedVersion: 2
        time: 0.10000014
        value: {x: -0.0034819215, y: -0.15148377, z: -0.04893907, w: 0.9872414}
        inSlope: {x: -0.046057656, y: -1.8929436, z: 0.016847305, w: -0.27886775}
        outSlope: {x: -0.046057656, y: -1.8929436, z: 0.016847305, w: -0.27886775}
        tangentMode: 0
      - serializedVersion: 2
        time: 0.16666698
        value: {x: -0.005538749, y: -0.23252477, z: -0.04780546, w: 0.9713991}
        inSlope: {x: -0.002719835, y: -0.11163668, z: 0.0025473305, w: -0.024188504}
        outSlope: {x: -0.002719835, y: -0.11163668, z: 0.0025473305, w: -0.024188504}
        tangentMode: 0
      - serializedVersion: 2
        time: 0.2666669
        value: {x: -0.0026150898, y: -0.116618775, z: -0.048981536, w: 0.99196476}
        inSlope: {x: 0.04211481, y: 1.7875941, z: -0.009103538, w: 0.2062129}
        outSlope: {x: 0.04211481, y: 1.7875941, z: -0.009103538, w: 0.2062129}
        tangentMode: 0
      - serializedVersion: 2
        time: 0.40000033
        value: {x: 0.0026618526, y: 0.118981294, z: -0.048985694, w: 0.99168384}
        inSlope: {x: 0.043322057, y: 1.8417015, z: 0.009510488, w: -0.21719953}
        outSlope: {x: 0.043322057, y: 1.8417015, z: 0.009510488, w: -0.21719953}
        tangentMode: 0
      - serializedVersion: 2
        time: 0.50000024
        value: {x: 0.005695301, y: 0.23908925, z: -0.047727183, w: 0.9698072}
        inSlope: {x: -0.0027354509, y: -0.11149886, z: -0.0026229792, w: 0.02486321}
        outSlope: {x: -0.0027354509, y: -0.11149886, z: -0.0026229792, w: 0.02486321}
        tangentMode: 0
      - serializedVersion: 2
        time: 0.60000014
        value: {x: 0.0018921582, y: 0.08489082, z: -0.049351044, w: 0.9951655}
        inSlope: {x: -0.04537542, y: -1.9604199, z: -0.0054247235, w: 0.1785062}
        outSlope: {x: -0.04537542, y: -1.9604199, z: -0.0054247235, w: 0.1785062}
        tangentMode: 0
      - serializedVersion: 2
        time: 0.6333337
        value: {x: 0.000548059, y: 0.025114164, z: -0.049290687, w: 0.9984686}
        inSlope: {x: -0.028382257, y: -1.2733572, z: 0.0029627755, w: 0.054385062}
        outSlope: {x: -0.028382257, y: -1.2733572, z: 0.0029627755, w: 0.054385062}
        tangentMode: 0
      - serializedVersion: 2
        time: 0.666667
        value: {x: -5.404396e-18, y: -1.09816405e-16, z: -0.049153525, w: 0.9987912}
        inSlope: {x: -0.016441787, y: -0.75342566, z: 0.0041148476, w: 0.009679208}
        outSlope: {x: -0.016441787, y: -0.75342566, z: 0.0041148476, w: 0.009679208}
        tangentMode: 0
      m_PreInfinity: 2
      m_PostInfinity: 2
      m_RotationOrder: 4
    path: Bone001/Bone002/Bone003/Bone004/Bone005/Bone006/Bone007
  - curve:
      serializedVersion: 2
      m_Curve:
      - serializedVersion: 2
        time: 0
        value: {x: 0.776036, y: -0.30933827, z: -0.287959, w: -0.4681426}
        inSlope: {x: 0, y: 0, z: 0, w: 0}
        outSlope: {x: 0, y: 0, z: 0, w: 0}
        tangentMode: 0
      - serializedVersion: 2
        time: 0.66666675
        value: {x: 0.776036, y: -0.30933827, z: -0.287959, w: -0.4681426}
        inSlope: {x: 0, y: 0, z: 0, w: 0}
        outSlope: {x: 0, y: 0, z: 0, w: 0}
        tangentMode: 0
      m_PreInfinity: 2
      m_PostInfinity: 2
      m_RotationOrder: 4
    path: Bone001/Bone009
  m_CompressedRotationCurves: []
  m_EulerCurves: []
  m_PositionCurves:
  - curve:
      serializedVersion: 2
      m_Curve:
      - serializedVersion: 2
        time: 0
        value: {x: -214.2424, y: 72.87943, z: 0.0000031888485}
        inSlope: {x: 0, y: 0, z: 0}
        outSlope: {x: 0, y: 0, z: 0}
        tangentMode: 0
      - serializedVersion: 2
        time: 0.66666675
        value: {x: -214.2424, y: 72.87943, z: 0.0000031888485}
        inSlope: {x: 0, y: 0, z: 0}
        outSlope: {x: 0, y: 0, z: 0}
        tangentMode: 0
      m_PreInfinity: 2
      m_PostInfinity: 2
      m_RotationOrder: 4
    path: Bone001
  - curve:
      serializedVersion: 2
      m_Curve:
      - serializedVersion: 2
        time: 0
        value: {x: -16.72467, y: -0.0000038146973, z: -9.640644e-11}
        inSlope: {x: 0, y: 0, z: 0}
        outSlope: {x: 0, y: 0, z: 0}
        tangentMode: 0
      - serializedVersion: 2
        time: 0.66666675
        value: {x: -16.72467, y: -0.0000038146973, z: -9.640644e-11}
        inSlope: {x: 0, y: 0, z: 0}
        outSlope: {x: 0, y: 0, z: 0}
        tangentMode: 0
      m_PreInfinity: 2
      m_PostInfinity: 2
      m_RotationOrder: 4
    path: Bone001/Bone002/Bone003
  - curve:
      serializedVersion: 2
      m_Curve:
      - serializedVersion: 2
        time: 0
        value: {x: -22.319, y: 0.0009962035, z: -0.0000076293945}
        inSlope: {x: 0, y: 0, z: 0}
        outSlope: {x: 0, y: 0, z: 0}
        tangentMode: 0
      - serializedVersion: 2
        time: 0.66666675
        value: {x: -22.319, y: 0.0009962035, z: -0.0000076293945}
        inSlope: {x: 0, y: 0, z: 0}
        outSlope: {x: 0, y: 0, z: 0}
        tangentMode: 0
      m_PreInfinity: 2
      m_PostInfinity: 2
      m_RotationOrder: 4
    path: Bone001/Bone002/Bone003/Bone004/Bone005
  - curve:
      serializedVersion: 2
      m_Curve:
      - serializedVersion: 2
        time: 0
        value: {x: -7.2215576, y: -0.000022888184, z: 0.00000011675047}
        inSlope: {x: 0, y: 0, z: 0}
        outSlope: {x: 0, y: 0, z: 0}
        tangentMode: 0
      - serializedVersion: 2
        time: 0.66666675
        value: {x: -7.2215576, y: -0.000022888184, z: 0.00000011675047}
        inSlope: {x: 0, y: 0, z: 0}
        outSlope: {x: 0, y: 0, z: 0}
        tangentMode: 0
      m_PreInfinity: 2
      m_PostInfinity: 2
      m_RotationOrder: 4
    path: Bone001/Bone002/Bone003/Bone004/Bone005/Bone006/Bone007
  m_ScaleCurves:
  - curve:
      serializedVersion: 2
      m_Curve:
      - serializedVersion: 2
        time: 0.00000023841858
        value: {x: 0.99999994, y: 0.99999994, z: 0.99999994}
        inSlope: {x: 0, y: 0, z: 0}
        outSlope: {x: 0, y: 0, z: 0}
        tangentMode: 0
      - serializedVersion: 2
        time: 0.66666675
        value: {x: 0.99999994, y: 0.99999994, z: 0.99999994}
        inSlope: {x: 0, y: 0, z: 0}
        outSlope: {x: 0, y: 0, z: 0}
        tangentMode: 0
      m_PreInfinity: 2
      m_PostInfinity: 2
      m_RotationOrder: 4
    path: Bone001
  - curve:
      serializedVersion: 2
      m_Curve:
      - serializedVersion: 2
        time: 0.00000023841858
        value: {x: 1, y: 1, z: 1}
        inSlope: {x: 0, y: 0, z: 0}
        outSlope: {x: 0, y: 0, z: 0}
        tangentMode: 0
      - serializedVersion: 2
        time: 0.666667
        value: {x: 1, y: 1, z: 1}
        inSlope: {x: 0, y: 0, z: 0}
        outSlope: {x: 0, y: 0, z: 0}
        tangentMode: 0
      m_PreInfinity: 2
      m_PostInfinity: 2
      m_RotationOrder: 4
    path: Bone001/Bone002/Bone003
  - curve:
      serializedVersion: 2
      m_Curve:
      - serializedVersion: 2
        time: 0.00000023841858
        value: {x: 1.0000001, y: 1.0000001, z: 1}
        inSlope: {x: 0, y: 0, z: 0}
        outSlope: {x: 0, y: 0, z: 0}
        tangentMode: 0
      - serializedVersion: 2
        time: 0.666667
        value: {x: 1.0000001, y: 1.0000001, z: 1}
        inSlope: {x: 0, y: 0, z: 0}
        outSlope: {x: 0, y: 0, z: 0}
        tangentMode: 0
      m_PreInfinity: 2
      m_PostInfinity: 2
      m_RotationOrder: 4
    path: Bone001/Bone002/Bone003/Bone004/Bone005
  - curve:
      serializedVersion: 2
      m_Curve:
      - serializedVersion: 2
        time: 0.00000023841858
        value: {x: 1.0000001, y: 1.0000001, z: 1}
        inSlope: {x: 0, y: 0, z: 0}
        outSlope: {x: 0, y: 0, z: 0}
        tangentMode: 0
      - serializedVersion: 2
        time: 0.666667
        value: {x: 1.0000001, y: 1.0000001, z: 1}
        inSlope: {x: 0, y: 0, z: 0}
        outSlope: {x: 0, y: 0, z: 0}
        tangentMode: 0
      m_PreInfinity: 2
      m_PostInfinity: 2
      m_RotationOrder: 4
    path: Bone001/Bone002/Bone003/Bone004/Bone005/Bone006/Bone007
  m_FloatCurves: []
  m_PPtrCurves: []
  m_SampleRate: 30
  m_WrapMode: 0
  m_Bounds:
    m_Center: {x: 0, y: 0, z: 0}
    m_Extent: {x: 0, y: 0, z: 0}
  m_ClipBindingConstant:
    genericBindings: []
    pptrCurveMapping: []
  m_AnimationClipSettings:
    serializedVersion: 2
    m_AdditiveReferencePoseClip: {fileID: 0}
    m_AdditiveReferencePoseTime: 0
    m_StartTime: 0
    m_StopTime: 0.666667
    m_OrientationOffsetY: 0
    m_Level: 0
    m_CycleOffset: 0
    m_HasAdditiveReferencePose: 0
    m_LoopTime: 1
    m_LoopBlend: 0
    m_LoopBlendOrientation: 0
    m_LoopBlendPositionY: 0
    m_LoopBlendPositionXZ: 0
    m_KeepOriginalOrientation: 0
    m_KeepOriginalPositionY: 1
    m_KeepOriginalPositionXZ: 0
    m_HeightFromFeet: 0
    m_Mirror: 0
  m_EditorCurves: []
  m_EulerEditorCurves: []
  m_HasGenericRootTransform: 0
  m_HasMotionFloatCurves: 0
  m_GenerateMotionCurves: 0
  m_Events: []
